organism	H19_mapped.bed	IT6_mapped.bed	H15_mapped.bed	IT7_mapped.bed	H5_mapped.bed	H27_mapped.bed	H3_mapped.bed	H4_mapped.bed	H13_mapped.bed	IT4_mapped.bed	H21_mapped.bed	IT13_mapped.bed	H16_mapped.bed	H1_mapped.bed	H10_mapped.bed	H17_mapped.bed	H24_mapped.bed	H18_mapped.bed	H7_mapped.bed	IT8_mapped.bed	H20_mapped.bed	IT1_mapped.bed	H12_mapped.bed	IT11_mapped.bed	IT3_mapped.bed	H2_mapped.bed	H26_mapped.bed	H14_mapped.bed	H9_mapped.bed	H8_mapped.bed	IT14_mapped.bed	H6_mapped.bed	H23_mapped.bed	IT5_mapped.bed	IT2_mapped.bed	H25_mapped.bed	H22_mapped.bed	H11_mapped.bed
ST4_WR1	0.0	0.0305	0.0046	0.0	0.0003	0.0	0.0014	0.0076	0.0005	0.0006	0.0005	0.0002	0.0017	0.0016	0.0006	0.0117	0.0008	0.0026	0.0004	0.0	0.0011	0.0009	0.0	0.0	0.005	0.0	0.0037	0.0018	0.0012	0.0001	0.0001	0.0	0.0	0.0269	0.0001	0.0003	0.0005	0.0001
ST6	0.0136	1.9126	0.0249	0.0046	0.0197	0.0017	0.0118	0.0382	0.0663	0.1118	0.0489	0.0161	0.1426	0.0326	0.0652	0.0464	0.2733	0.2845	0.0376	0.0061	0.0141	0.0244	0.0062	0.0019	0.5701	0.0074	0.0136	0.1254	0.0122	0.006	0.0296	0.0615	0.0739	0.3723	0.0498	0.0042	0.0063	0.0114
ST7	0.0023	0.0874	0.0345	0.001	0.002	0.0001	0.0112	0.0483	0.0066	0.0011	0.0126	0.0001	0.0122	0.0156	0.0226	0.1028	0.0011	0.028999999999999998	0.0038	0.0005	0.0202	0.0	0.0045	0.0005	0.0021	0.0001	0.0308	0.0215	0.0298	0.0044	0.0	0.0	0.0005	0.001	0.0004	0.0109	0.0077	0.0016
ST2	0.0005	0.0018	0.0027	0.0006	0.0022	0.0006	0.0111	0.0305	0.0133	0.0006	0.004	0.0002	0.0086	0.0081	0.006	0.1167	0.0062	0.0023	0.0006	0.0019	0.0084	0.0001	0.0006	0.001	0.0009	0.0006	0.0177	0.0534	0.0139	0.0008	0.0002	0.0004	0.0008	0.0022	0.0014	0.008	0.0089	0.0019
ST3	0.0271	1.7544	0.1643	0.0609	0.077	0.0626	0.2906	0.2549	0.1843	0.1151	0.2288	0.0411	0.3591	0.1609	0.4256	0.6042	0.4181	0.2004	0.0206	0.1383	0.1301	0.0926	0.0591	0.0998	0.4906	0.0858	0.1195	0.5036	0.1205	0.0258	0.0444	0.0412	0.0603	0.4844	0.2946	0.0855	0.0744	0.1175
ST8	0.0156	0.2155	0.0738	0.013000000000000001	0.036000000000000004	0.0249	0.1074	0.0975	0.0917	0.0141	0.1035	0.0071	0.1614	0.0831	0.1666	0.221	0.1919	0.2021	0.0261	0.0336	0.0604	0.0086	0.0243	0.0243	0.0552	0.0338	0.0541	0.2091	0.0428	0.0118	0.0038	0.0191	0.037000000000000005	0.0714	0.0782	0.0345	0.0312	0.0473
ST9	0.0052	0.4111	0.0513	0.0174	0.0226	0.0175	0.0976	0.0757	0.0636	0.0374	0.0666	0.0104	0.1311	0.0516	0.1194	0.1592	0.1092	0.0611	0.0058	0.0442	0.0399	0.0125	0.0192	0.0279	0.2559	0.0286	0.0409	0.145	0.0329	0.0074	0.0153	0.0113	0.013999999999999999	0.1401	0.0833	0.0252	0.0232	0.0374
