organism	G18141_mapped.bed	G20352_mapped.bed	G18179_mapped.bed	G18113_mapped.bed	G18103_mapped.bed	G18115_mapped.bed	G18200_mapped.bed	G18105_mapped.bed	G18124_mapped.bed	G18107_mapped.bed	G18139_mapped.bed	G18116_mapped.bed	G18111_mapped.bed	G18118_mapped.bed	G18122_mapped.bed	G18109_mapped.bed	G18216_mapped.bed	G18100_mapped.bed	G18108_mapped.bed	G18181_mapped.bed	G18143_mapped.bed	G18140_mapped.bed	G18180_mapped.bed	G18104_mapped.bed	G18170_mapped.bed	G18126_mapped.bed	G18098_mapped.bed	G18114_mapped.bed	G20349_mapped.bed	G18125_mapped.bed	G18102_mapped.bed	G18096_mapped.bed	G18112_mapped.bed	G18110_mapped.bed	G18101_mapped.bed	G18184_mapped.bed	G18131_mapped.bed	G18095_mapped.bed	G18117_mapped.bed	G18120_mapped.bed
ST4_WR1	0.2704	0.0731	0.0503	0.1075	0.0625	0.0894	0.0393	0.1507	0.0222	0.0489	0.0957	0.0685	0.0565	0.0911	0.0299	0.0281	0.0002	0.1315	0.1139	0.0336	0.0308	0.0035	0.0884	0.0867	0.149	0.174	0.0666	0.0561	0.1715	0.0105	0.1693	0.0189	0.1463	0.0074	0.1147	0.1107	0.0534	0.0825	0.021	0.0321
ST6	6.6911	0.755	7.02	4.4602	3.0881	0.3606	2.7917	4.4246	1.5982	2.8761	3.2337	0.9272	1.7911	1.8436	0.6169	4.9342	0.9198	3.6901	3.9116	3.4907	1.5234	4.1881	17.7679	3.9641	1.7281	0.8367	3.6868	8.3542	2.7647	1.5709	2.2908	2.2435	5.9683	5.2296	5.2323	14.8673	1.4491	6.0755	2.9654	1.2102
ST7	0.0001	1.1064	0.0019	0.0053	0.0001	0.8468	0.0884	1.8601	0.0155	0.0182	0.0	0.0072	0.0395	0.0024	0.0012	0.0033	0.0135	0.0002	0.0206	0.0123	0.0638	0.0064	0.8868	0.0291	0.0061	0.0193	0.0004	0.0106	1.7752	0.0003	0.08900000000000001	0.0003	0.0	0.0061	0.049	0.2368	0.0016	1.052	0.0047	0.0028
ST2	0.0021	0.0403	0.0078	0.0037	0.0029	0.0463	0.0166	0.2157	0.0052	0.0061	0.0059	0.0044	0.0102	0.0037	0.0036	0.0038	0.0003	0.0034	0.0043	0.0087	0.013999999999999999	0.0046	0.1256	0.0067	0.0125	0.0053	0.0039	0.0058	0.0635	0.0037	0.0675	0.0013	0.0027	0.0051	0.0103	0.0408	0.0039	0.1119	0.0019	0.0072
ST3	4.1471	0.8651	1.7673	0.7854	1.7468	1.8502	4.4209	2.4391	1.383	0.5099	4.5401	0.5244	1.5136	1.9402	0.5463	0.5124	0.0987	1.2096	0.4026	3.1441	0.45799999999999996	1.6048	6.3017	1.08	1.6214	0.6146	4.3504	2.6464	0.624	0.7428	0.6741	1.3124	2.0026	1.4245	1.3212	11.1718	0.6463	3.3074	1.0219	0.9014
ST8	0.1253	0.2008	0.3675	0.2343	0.5855	0.2842	0.5397	0.3222	0.1611	0.5172	0.3035	0.1919	0.20600000000000002	0.2749	0.1376	0.1749	0.0067	0.2421	0.1538	0.5163	0.4369	0.7184	0.2998	0.1777	0.41600000000000004	0.2241	0.2983	2.3865	0.26899999999999996	0.3494	0.1707	0.146	0.3432	0.2004	0.2074	0.5201	0.3804	0.1831	0.5627	0.5975
ST9	0.6937	0.3127	0.5999	0.1302	0.3571	0.2065	1.0273	0.7463	0.3316	0.0504	3.5506	0.0437	0.1771	0.5529	0.1075	0.1284	0.0368	0.0331	0.0586	0.9875	0.0847	0.8812	1.1154	0.18100000000000002	1.5258	0.0575	0.7871	0.4324	0.1826	0.2019	0.1105	0.2447	1.6059999999999999	0.2669	0.0202	2.0845	0.1356	0.7194	0.489	0.1539
